The Olympic Games project
…
data_all <- data_all %>% mutate(Sex = ifelse(ID == '113716', 'M', Sex))

Age variable

data_all %>% filter(Age %in% c(NA))

## # A tibble: 9,476 x 15
##       ID Name    Sex     Age Height Weight Team   NOC   Games  Year Season City 
##    <dbl> <chr>   <chr> <dbl>  <dbl>  <dbl> <chr>  <chr> <chr> <dbl> <chr>  <chr>
##  1    54 "Moham~ M        NA     NA     NA Iran   IRI   1948~  1948 Summer Lond~
##  2    58 "Georg~ M        NA     NA     NA Bulga~ BUL   1924~  1924 Summer Paris
##  3    58 "Georg~ M        NA     NA     NA Bulga~ BUL   1924~  1924 Summer Paris
##  4    66 "Moham~ M        NA    156     48 Sudan  SUD   1972~  1972 Summer Muni~
##  5   102 "Sayed~ M        NA     NA     NA Egypt  EGY   1920~  1920 Summer Antw~
##  6   102 "Sayed~ M        NA     NA     NA Egypt  EGY   1928~  1928 Summer Amst~
##  7   133 "Franz~ M        NA     NA     NA Germa~ GER   1900~  1900 Summer Paris
##  8   139 "Georg~ M        NA     NA     NA Thess~ GRE   1906~  1906 Summer Athi~
##  9   163 "Ismai~ M        NA     NA     NA Unite~ UAR   1960~  1960 Summer Roma 
## 10   163 "Ismai~ M        NA     NA     NA Unite~ UAR   1960~  1960 Summer Roma 
## # ... with 9,466 more rows, and 3 more variables: Sport <chr>, Event <chr>,
## #   Medal <chr>

The amount of NAs was too vast (9,476) to consider changing it manually. However, the proportion of observations with NAs in Age variable was only 3,5%, so we decided to leave it without changes. There might be different approaches to this problem. But I decided that this 3,5% lack of information is not significant enough to cause any problems later.

The all-time record for the oldest Olympics competitor was 72 years, whereas the youngest competitor was 10 years old.

data_all %>% filter(Age > 72)

## # A tibble: 45 x 15
##       ID Name    Sex     Age Height Weight Team   NOC   Games  Year Season City 
##    <dbl> <chr>   <chr> <dbl>  <dbl>  <dbl> <chr>  <chr> <chr> <dbl> <chr>  <chr>
##  1  4160 Robert~ M        75     NA     NA Unite~ USA   1932~  1932 Summer Los ~
##  2  5146 George~ M        84     NA     NA Great~ GBR   1948~  1948 Summer Lond~
##  3 10220 Frank ~ M        74     NA     NA Unite~ USA   1936~  1936 Summer Berl~
##  4 18252 Anne M~ F        73     NA     NA Denma~ DEN   1936~  1936 Summer Berl~
##  5 22984 John (~ M        73     NA     NA Great~ GBR   1948~  1948 Summer Lond~
##  6 22984 John (~ M        73     NA     NA Great~ GBR   1948~  1948 Summer Lond~
##  7 23459 Flicie~ M       240     NA     NA Belgi~ BEL   1912~  1912 Summer Stoc~
##  8 27972 Godefr~ M        74     NA     NA Belgi~ BEL   1936~  1936 Summer Berl~
##  9 27972 Godefr~ M        74     NA     NA Belgi~ BEL   1936~  1936 Summer Berl~
## 10 27972 Godefr~ M        74     NA     NA Belgi~ BEL   1936~  1936 Summer Berl~
## # ... with 35 more rows, and 3 more variables: Sport <chr>, Event <chr>,
## #   Medal <chr>
…
data_all %>% filter(Age < 10)

## # A tibble: 0 x 15
## # ... with 15 variables: ID <dbl>, Name <chr>, Sex <chr>, Age <dbl>,
## #   Height <dbl>, Weight <dbl>, Team <chr>, NOC <chr>, Games <chr>, Year <dbl>,
## #   Season <chr>, City <chr>, Sport <chr>, Event <chr>, Medal <chr>

No competitors younger than 10 were found.

Height variable

data_all %>% filter(Height %in% c(NA))

## # A tibble: 60,172 x 15
##       ID Name    Sex     Age Height Weight Team   NOC   Games  Year Season City 
##    <dbl> <chr>   <chr> <dbl>  <dbl>  <dbl> <chr>  <chr> <chr> <dbl> <chr>  <chr>
##  1     3 "Gunna~ M        24     NA     NA Denma~ DEN   1920~  1920 Summer Antw~
##  2     4 "Edgar~ M        34     NA     NA Denma~ DEN   1900~  1900 Summer Paris
##  3    10 "Einar~ M        26     NA     NA Finla~ FIN   1952~  1952 Summer Hels~
##  4    15 "Arvo ~ M        22     NA     NA Finla~ FIN   1912~  1912 Summer Stoc~
##  5    15 "Arvo ~ M        22     NA     NA Finla~ FIN   1912~  1912 Summer Stoc~
##  6    15 "Arvo ~ M        30     NA     NA Finla~ FIN   1920~  1920 Summer Antw~
##  7    15 "Arvo ~ M        30     NA     NA Finla~ FIN   1920~  1920 Summer Antw~
##  8    15 "Arvo ~ M        34     NA     NA Finla~ FIN   1924~  1924 Summer Paris
##  9    19 "Win V~ M        54     NA     NA Finla~ FIN   1948~  1948 Summer Lond~
## 10    24 "Nils ~ M        24     NA     NA Norway NOR   1960~  1960 Winter Squa~
## # ... with 60,162 more rows, and 3 more variables: Sport <chr>, Event <chr>,
## #   Medal <chr>

The amount of NAs in Height variable equaled 60,172 and was significant enough. However, it would take too much time to replace them with values manually, and by replacing them with a mean value, we would make an assumption, that height does not depend on sex, age, sport and nationality. But that is not true. For that reason we decided to leave these NAs without any changes.

Weight variable

data_all %>% filter(Weight %in% c(NA))

## # A tibble: 62,876 x 15
##       ID Name    Sex     Age Height Weight Team   NOC   Games  Year Season City 
##    <dbl> <chr>   <chr> <dbl>  <dbl>  <dbl> <chr>  <chr> <chr> <dbl> <chr>  <chr>
##  1     3 "Gunna~ M        24     NA     NA Denma~ DEN   1920~  1920 Summer Antw~
##  2     4 "Edgar~ M        34     NA     NA Denma~ DEN   1900~  1900 Summer Paris
##  3     8 "Corne~ F        18    168     NA Nethe~ NED   1932~  1932 Summer Los ~
##  4     8 "Corne~ F        18    168     NA Nethe~ NED   1932~  1932 Summer Los ~
##  5    10 "Einar~ M        26     NA     NA Finla~ FIN   1952~  1952 Summer Hels~
##  6    15 "Arvo ~ M        22     NA     NA Finla~ FIN   1912~  1912 Summer Stoc~
##  7    15 "Arvo ~ M        22     NA     NA Finla~ FIN   1912~  1912 Summer Stoc~
##  8    15 "Arvo ~ M        30     NA     NA Finla~ FIN   1920~  1920 Summer Antw~
##  9    15 "Arvo ~ M        30     NA     NA Finla~ FIN   1920~  1920 Summer Antw~
## 10    15 "Arvo ~ M        34     NA     NA Finla~ FIN   1924~  1924 Summer Paris
## # ... with 62,866 more rows, and 3 more variables: Sport <chr>, Event <chr>,
## #   Medal <chr>

The amount of NAs in Weight variable was highly significant as well at exactly 62,876 observations. But for the same reason (as for height) we decided to leave these NAs without any changes.

Sport variable

We summarized information about sport:

data_all %>% group_by(Sport) %>% summarise()

## # A tibble: 68 x 1
##    Sport           
##    <chr>           
##  1 Aeronautics     
##  2 Alpine Skiing   
##  3 Alpinism        
##  4 Archery         
##  5 Art Competitions
##  6 Athletics       
##  7 Badminton       
##  8 Baseball        
##  9 Basketball      
## 10 Basque Pelota   
## # ... with 58 more rows

A problem were found with football, because in the data frame were name Footba as well. We changed it:

data_all <- data_all %>% 
  mutate(Sport = ifelse(Sport == "Footba", 'Football', Sport))

Event variable

We summarized information about the events:

data_all %>% group_by(Event) %>% summarise()

## # A tibble: 767 x 1
##    Event                             
##    <chr>                             
##  1 Aeronautics Mixed Aeronautics     
##  2 Alpine Skiing Men's Combined      
##  3 Alpine Skiing Men's Downhill      
##  4 Alpine Skiing Men's Giant Slalom  
##  5 Alpine Skiing Men's Slalom        
##  6 Alpine Skiing Men's Super G       
##  7 Alpine Skiing Women's Combined    
##  8 Alpine Skiing Women's Downhill    
##  9 Alpine Skiing Women's Giant Slalom
## 10 Alpine Skiing Women's Slalom      
## # ... with 757 more rows
…
